ionic serve --lab
ionic serve --lab
ionic serve --labpwd
cd ionicApp/
ionic serve --labpwd
ionic serve --lab
bower install ngmap
sudo bower install ngmap
sudo bower install --allow-root ngmap
sudo bower install ngmap
 bower install  ngCordova
sudo bower install --allow-root ngCordova
pwd
ionic serve --lab
pwd
cd
[wd
cd
pwd
gitclone https://bitbucket.org/johnrowley/mapaug23/src
git clone https://bitbucket.org/johnrowley/mapaug23/src
ls
cd src
ionic serve --lab
defaults write com.apple.finder AppleShowAllFiles NO
man serve
sudo bower install --allow-root ngmap
pwd
ls
cd src
pwd
git branch 001
git checkout 001
pwd
git branch 001
gitclone https://bitbucket.org/johnrowley/movieaug18.git
sudo gitclone https://bitbucket.org/johnrowley/movieaug18.git
sudo gitclone https://bitbucket.org/johnrowley/movieAug18.git
sudo git clone https://bitbucket.org/johnrowley/movieAug18.git
pwd
cd
pwd
sudo git clone https://bitbucket.org/johnrowley/movieAug18.git
git branch
pwd
cd src
git branch
pwd
ionic serve --lab
git merge 001
git merge 001
git merge 001
ionic serve --lab
ionic serve
git merge 001
ionic serve --lab
ionic serve --lab
git merge 001
ionic serve --lab
git merge 001

git merge 001
ionic serve --lab
ionic serve --lab
ionic serve --lab
ionic serve --lab
ionic serve --lab
ionic serve --lab

ionic serve --lab
ionic serve --lab
ionic serve --lab
ionic serve --lab
ionic serve --lab
ionic serve --lab
ionic serve --lab
ionic upload
git merge 001
git branch
ionic stacd
pwd
cd
pwd
ionic start mynotes tabs
ls
cd mynotes/
git branch release 1
git branch release01
git init
git 
git add*
git add *
git add *
pwd
git add *
sudo git add *
git add *
git add * -f
ls
git add *
cd
ls
cd mynotes/
cd www
dir
ls
git add www *
git add www/*
git add *
git commit
git add *
ls
cd mynotes/
git add *
git add * -f
git commit -m"Initial commit"
git branch release_01
git branch notesfeature
git checkout notesfeature
ionic serve
cd
ls
git add mynotes 
ls
git add mynotes 
git add mynotes 
ionic start mynotes tabs
git add mynotes ls
pwd
ls
git add mynotes
cd mynotes/
git init
cd
pwd
ls
git add mynotes
sudo git add mynotes
cd mynotes/
git add *
cd
ls
git add mynotes
cd mynotes
ls
git init
cd ..
ls
git add mynotes
git status
cd mynotes/
git status
cd ..
git add mynotes/
ls
cd mynotes/
git add *
git commit -m "Initial commit"
ld
cd
ld
cd
cd
cd
ld
ls
git add mynotes
cd mynotes/
git add mynotes
git add www/
git commit -m "Initial commit"
git status
git
git show
git
git log
git help -a
ls
cd ..

git commit -m "Initial commit"
ionic serve
pwd
cd mynotes/
ionic serve
ionic serve
ionic serve
git show
pwd
ionic serve
ionic serve
git add mynotes 
ionic serve
sudo ionic serve
pwd
ls
cd
ls
mynotes/
ls
cd mynotes/
ls
ionic serve
sudo ionic serve
ls
pwd
sudo ionic serve
sudo ionic serve --lab
sudo ionic serve --lab
sudo ionic serve --lab
sudo git clone https://bitbucket.org/johnrowley/notesaug24.git
git clone https://bitbucket.org/johnrowley/notesaug24.git
pwd
cd
ls
git clone https://bitbucket.org/johnrowley/notesaug24.git
cd notesaug24/
git init
git add *
git commit -m"Initial commit"
git branch release_01
git branch notesfeature
git branch
git checkout notesfeaturess
git checkout notesfeature
ionic serve
ionic upload
cd
ionic start Location tabs
ionic serve
pwd
cd Location/
ionic serve
sudo ionic serve
sudo ionic serve
sudo ionic serve
sudo ionic serve
sudo ionic serve
sudo ionic serve
sudo ionic serve

sudo ionic serve --lab
q
sudo ionic serve --lab
cd
ls
cd Location/
sudo ionic serve
ionic serve
cd
ls
cd Location
ionic serve
sudo ionic serve
resetpassword
sudo resetpassword
resetpassword
sudo
resetpassword
sudo resetpassword
passwd
passwd
passwd
git clone mapaug23
cd
git clone mapaug23
git clone aug23
sudo git clone aug23
sudo git clone mapAug23
sudo git clone mapaug23
sudo git clone mapaug23
git init
pwd
sudo git clone mapaug23
git clone https://johnroowley/mapaug23.git
pwd
git clone https://johnroowley/mapaug23
git clone https://bitbucket.org/johnrowley/notesaug23.git
sudo git clone https://bitbucket.org/johnrowley/mapaug23.git
ionic start firebase_001 side menu
pwd
pwd
ionic serve
ionic serve
ionic serve
ionic serve
ionic serve
pwd
cd firebase_001/
ionic serve
ionic serve
ionic serve
ls
cd www
ls
ionic serve
ionic serve
pwd
cd ..
ls
pwd
ionic serve
pwd
ionic serve
pwd
cd
ls
git clone https://yamadaj2.bitbucket.org/yamadaj2/c-assignment.git
sudo git clone https://yamadaj2.bitbucket.org/yamadaj2/c-assignment.git
git init
git remote add origin https://yamadaj2@bitbucket.org/yamadaj2/webappproject.git
pwd
ls -a
cd .git
ls
cd branches
ls
pwd
cd ~
pwd
ls
cd Desktop/
ls
less hello.txt
echo hello.txt
touch hello.txt
echo >> test hello.txt 
nano hello.txt 
less hello.txt 
curl -L trhou.se/path01
curl -L trhou.se/path01 | bash
whoami
passwd
su
pwd
~
cd ~
pwd
pwd
top
ps
ps aux
ps aux l
ps laux
qclear
clear
ps aux | grep "top"
nano
cd $HOME/.nanorc.
allow nano to suspend
$HOME/.nanorc
.nanorc
ls
cd
ls
cd $HOME/.nanorc
cd .nanorc
lsa
lsa
ls la
ls -l
ls -a
set suspend in ~/.nanorc
nano
find .nano
locate .nano
locate -f .nano
cd /var/db/locate.database
cd /var/db
ls -a
locate -f .nano
find -f .nano
find ~/ -type f .nano
cd /usr/bin/nano
whereis nano
cd /usr/bin/nano
ls
ls -a
where is nano
whereis nano
cd /usr/bin/nano
la -a
ls
cd /usr/bin
ls-a
ls
allow nano to suspend
ls -a
nano -z
fg
fg
jobs
top
fg
clear
pwd
cd
pwd
ionic start androidDemo tabs
ionic platform add android
cd androidDemo/
ionic platform add android
sudo ionic platform add android
ionic build android
sudo ionic build android
echo $ANDROID_HOME
locate android
find android
ionic build androidcd
ls
cd
cd
ls
cd Library/
cd Android/
ls
cd sdk/
ls
pwd
pwd
sudo platform add android
sudo ionic platform add android
cd
cd androidDemo/
sudo ionic platform add android
ionic build android
sudo ionic build android
ionic eulate android
sudo ionic build android
ionic eulate android
sudo ionic build android
sudo ionic build android --stacktrace
sudo ionic build android --info
sudo ionic build android --debug
sudo ionic build android --stacktrace
cd
cd androidDemo/
sudo ionic build android --stacktrace
sudo ionic build android --stacktrace
compile 'com.google.android.gms:play-services:7.5.0'
sudo compile 'com.google.android.gms:play-services:7.5.0'
sudo multiDexEnabled true
sudo compile 'com.google.android.gms:play-services:8.3.0'
sudo ionic build android --stacktrace
cd
cd androidDemo/
sudo ionic build android --stacktrace
ionic eulate android
ionic eulate androidpwd
cd
pwd
sudo git clone https://bitbucket.org/johnrowley/ionic-demo-git appdemo
cd
git clone https://bitbucket.org/johnrowley/ionic-demo-git appdemo
pwd
git clone https://bitbucket.org/johnrowley/ionic-demo-git-app.git  appdemo
git clone https://bitbucket.org/johnrowley/ionic-demo-app.git  appdemo
sudo git clone https://bitbucket.org/johnrowley/ionic-demo-app.git  appdemo
git clone https://bitbucket.org/johnrowley/ionic-demo-app.git  appdemo
sudo bower install ngCordova
git clone https://bitbucket.org/johnrowle/ionic-demo-app.git
dir
pwd
cd
git clone https://bitbucket.org/johnrowle/ionic-demo-app.gitpwd
pwd
git clone https://bitbucket.org/johnrowle/ionic-demo-app.git
git clone https://bitbucket.org/johnrowley/ionic-demo-app.git
git clone https://bitbucket.org/johnrowley/ionic-demo-app.git
cd
pwd
git clone https://bitbucket.org/johnrowley/ionic-demo-app.git
xcode-select --install
git clone https://bitbucket.org/johnrowley/ionic-dem
cd
pwd
git clone https://bitbucket.org/johnrowley/ionic-demo-app.git appdemo
bower indtall ngCordova
sudo bower indtall ngCordova
sudo bower indtall--allow-root  ngCordova
cd
cd appd
cd appdemo/
sudo bower install --allow-root
sudo --allow-root bower install
sudo bower install --allow-root
sudo bower install --allow-root
cd
sudo bower install --allow-root
pwd
cd appdemo/
sudo bower install --allow-root
pwd
git pull https://bitbucket.org/johnrowley/ionic-demo-app.git
git pull https://bitbucket.org/johnrowley/ionic-demo-app.git
sudo bower install --allow-root
sudo npm install -g bower
git config --global url."https://instedOf git:// 
sudo npm install -g bower
sudo git config --global url."https://instedOf git:// 
sudo git config --global url."https://".instedOf git://
sudo npm install -g bower
pwd
cd appdemo/
pwd
sudo npm install -g bower
sudo bower install ngCordova
sudo --allow-root  bower install ngCordova
sudo bower install ngCordova --allow-root
